{
  "type": "service_account",
  "project_id": "threadvoice",
  "private_key_id": "DEMO_PRIVATE_KEY_ID",
  "private_key": "-----BEGIN PRIVATE KEY-----\nDEMO_PRIVATE_KEY=\n-----END PRIVATE KEY-----\n",
  "client_email": "threadvoiceadmin@threadvoice.iam.gserviceaccount.com",
  "client_id": "101850589290862446748",
  "auth_uri": "https://accounts.google.com/o/oauth2/auth",
  "token_uri": "https://oauth2.googleapis.com/token",
  "auth_provider_x509_cert_url": "https://www.googleapis.com/oauth2/v1/certs",
  "client_x509_cert_url": "https://www.googleapis.com/robot/v1/metadata/x509/threadvoiceadmin%40threadvoice.iam.gserviceaccount.com"
}
